<svg width="182" height="274" viewBox="0 0 182 274" fill="none" xmlns="http://www.w3.org/2000/svg">
<g clip-path="url(#clip0_1158_31130)">
<rect width="182" height="274" rx="10" fill="#D9D9D9"/>
<path d="M11.8462 8.70276C11.8462 8.15047 12.2939 7.70276 12.8462 7.70276H42.6962C43.2485 7.70276 43.6962 8.15047 43.6962 8.70276V46.6096H11.8462V8.70276Z" fill="#BABABA"/>
<path d="M11.8462 46.6096H43.6962V69.9264C43.6962 70.4787 43.2485 70.9264 42.6962 70.9264H12.8462C12.2939 70.9264 11.8462 70.4787 11.8462 69.9264V46.6096Z" fill="#767676"/>
<g clip-path="url(#clip1_1158_31130)">
<path d="M135.385 243.349C135.099 243.349 134.825 243.43 134.623 243.573C134.421 243.716 134.308 243.911 134.308 244.113V260.925C134.308 261.128 134.421 261.322 134.623 261.465C134.825 261.609 135.099 261.689 135.385 261.689C135.67 261.689 135.944 261.609 136.146 261.465C136.348 261.322 136.461 261.128 136.461 260.925V244.113C136.461 243.911 136.348 243.716 136.146 243.573C135.944 243.43 135.67 243.349 135.385 243.349Z" fill="#767676"/>
<path d="M139.692 243.349C139.407 243.349 139.133 243.43 138.931 243.573C138.729 243.716 138.615 243.911 138.615 244.113V257.868C138.615 258.071 138.729 258.265 138.931 258.409C139.133 258.552 139.407 258.632 139.692 258.632C139.978 258.632 140.252 258.552 140.454 258.409C140.656 258.265 140.769 258.071 140.769 257.868V244.113C140.769 243.911 140.656 243.716 140.454 243.573C140.252 243.43 139.978 243.349 139.692 243.349Z" fill="#767676"/>
<path d="M144 243.349C143.714 243.349 143.44 243.43 143.238 243.573C143.036 243.716 142.923 243.911 142.923 244.113V257.868C142.923 258.071 143.036 258.265 143.238 258.409C143.44 258.552 143.714 258.632 144 258.632C144.285 258.632 144.559 258.552 144.761 258.409C144.963 258.265 145.077 258.071 145.077 257.868V244.113C145.077 243.911 144.963 243.716 144.761 243.573C144.559 243.43 144.285 243.349 144 243.349Z" fill="#767676"/>
<path d="M148.308 243.349C148.022 243.349 147.748 243.43 147.546 243.573C147.344 243.716 147.231 243.911 147.231 244.113V257.868C147.231 258.071 147.344 258.265 147.546 258.409C147.748 258.552 148.022 258.632 148.308 258.632C148.593 258.632 148.867 258.552 149.069 258.409C149.271 258.265 149.385 258.071 149.385 257.868V244.113C149.385 243.911 149.271 243.716 149.069 243.573C148.867 243.43 148.593 243.349 148.308 243.349Z" fill="#767676"/>
<path d="M152.615 243.349C152.33 243.349 152.056 243.43 151.854 243.573C151.652 243.716 151.539 243.911 151.539 244.113V257.868C151.539 258.071 151.652 258.265 151.854 258.409C152.056 258.552 152.33 258.632 152.615 258.632C152.901 258.632 153.175 258.552 153.377 258.409C153.579 258.265 153.692 258.071 153.692 257.868V244.113C153.692 243.911 153.579 243.716 153.377 243.573C153.175 243.43 152.901 243.349 152.615 243.349Z" fill="#767676"/>
<path d="M156.923 243.349C156.637 243.349 156.364 243.43 156.162 243.573C155.96 243.716 155.846 243.911 155.846 244.113V257.868C155.846 258.071 155.96 258.265 156.162 258.409C156.364 258.552 156.637 258.632 156.923 258.632C157.209 258.632 157.483 258.552 157.685 258.409C157.887 258.265 158 258.071 158 257.868V244.113C158 243.911 157.887 243.716 157.685 243.573C157.483 243.43 157.209 243.349 156.923 243.349Z" fill="#767676"/>
<path d="M161.231 243.349C160.945 243.349 160.671 243.43 160.469 243.573C160.267 243.716 160.154 243.911 160.154 244.113V257.868C160.154 258.071 160.267 258.265 160.469 258.409C160.671 258.552 160.945 258.632 161.231 258.632C161.516 258.632 161.79 258.552 161.992 258.409C162.194 258.265 162.308 258.071 162.308 257.868V244.113C162.308 243.911 162.194 243.716 161.992 243.573C161.79 243.43 161.516 243.349 161.231 243.349Z" fill="#767676"/>
<path d="M165.538 243.349C165.253 243.349 164.979 243.43 164.777 243.573C164.575 243.716 164.461 243.911 164.461 244.113V260.925C164.461 261.128 164.575 261.322 164.777 261.465C164.979 261.609 165.253 261.689 165.538 261.689C165.824 261.689 166.098 261.609 166.3 261.465C166.502 261.322 166.615 261.128 166.615 260.925V244.113C166.615 243.911 166.502 243.716 166.3 243.573C166.098 243.43 165.824 243.349 165.538 243.349Z" fill="#767676"/>
</g>
<rect x="-73" y="143.987" width="309.655" height="115.33" transform="rotate(-16.1221 -73 143.987)" fill="#767676"/>
<path d="M113.657 105.328L100.296 128.087C100.146 128.343 99.8082 128.413 99.5696 128.239L84.4962 117.198C84.2389 117.01 83.873 117.108 83.7438 117.4L76.9974 132.662C76.8982 132.887 76.6514 133.006 76.4144 132.945L52.733 126.815C52.4118 126.732 52.0997 126.98 52.1073 127.312L52.5714 147.496C52.5772 147.749 52.394 147.967 52.1443 148.004L28.8635 151.474C28.4981 151.528 28.3151 151.947 28.5234 152.252L38.7335 167.194C38.8268 167.331 38.8465 167.505 38.7861 167.659L32.6867 183.245C32.5466 183.603 32.8448 183.979 33.2245 183.922L54.0578 180.808C54.3126 180.77 54.5541 180.932 54.6157 181.182L58.0472 195.135C58.133 195.484 58.548 195.63 58.8342 195.412L76.9458 181.619C77.1496 181.464 77.4373 181.488 77.6122 181.674L90.1482 195.036C90.3388 195.239 90.6589 195.246 90.8596 195.052L116.839 169.91C117.001 169.754 117.247 169.724 117.441 169.838L133.469 179.29C133.734 179.446 134.077 179.327 134.189 179.039L141.824 159.42C141.882 159.272 142.007 159.16 142.161 159.118L160.218 154.235C160.596 154.132 160.716 153.655 160.432 153.387L147.894 141.574C147.773 141.461 147.717 141.294 147.744 141.13L151.374 119.02C151.434 118.65 151.083 118.348 150.727 118.464L125.206 126.787C124.967 126.865 124.708 126.754 124.601 126.527L114.538 105.365C114.366 105.003 113.86 104.982 113.657 105.328Z" fill="#BABABA"/>
</g>
<defs>
<clipPath id="clip0_1158_31130">
<rect width="182" height="274" fill="white"/>
</clipPath>
<clipPath id="clip1_1158_31130">
<rect width="38.7692" height="27.51" fill="white" transform="translate(130 238)"/>
</clipPath>
</defs>
</svg>
