{
  "content": [
    {
      "id": "0APVQJXSY5C7J",
      "seriesId": "0APVQJXP650ZK",
      "seriesTitle": "Batman (2016)",
      "libraryId": "0AE5SF447QPSM",
      "name": "Batman v3 #118.0 - Fear State - Omega 001 (2022)",
      "url": "Batman v3 #118.0 - Fear State - Omega 001 (2022).cbz",
      "number": 167,
      "created": "2022-12-01T06:00:06",
      "lastModified": "2022-12-10T14:00:43",
      "fileLastModified": "2021-12-03T20:44:09",
      "sizeBytes": 70864724,
      "size": "67.6 MiB",
      "media": {
        "status": "READY",
        "mediaType": "application/zip",
        "pagesCount": 39,
        "comment": ""
      },
      "metadata": {
        "title": "Batman v3 #118.0 - Fear State - Omega 001 (2022)",
        "titleLock": false,
        "summary": "As Gotham’s Fear State comes to a close, a new day dawns on the city…one without Batman. But the Dark Knight’s absence does not mean the city is without heroes. Join James Tynion IV and Riccardo Federici as they bring “Fear State” to its conclusion and introduce a new status quo that will reverberate throughout the DCU for years to come.",
        "summaryLock": false,
        "number": "1",
        "numberLock": false,
        "numberSort": 1.0,
        "numberSortLock": false,
        "releaseDate": "2022-01-01",
        "releaseDateLock": false,
        "authors": [
          {
            "name": "James Tynion IV",
            "role": "writer"
          },
          {
            "name": "Christian Duce",
            "role": "penciller"
          },
          {
            "name": "Guillem March",
            "role": "penciller"
          },
          {
            "name": "Riccardo Federici",
            "role": "penciller"
          },
          {
            "name": "Ryan Benjamin",
            "role": "penciller"
          },
          {
            "name": "Trevor Hairsine",
            "role": "penciller"
          },
          {
            "name": "Christian Duce",
            "role": "inker"
          },
          {
            "name": "Guillem March",
            "role": "inker"
          },
          {
            "name": "Riccardo Federici",
            "role": "inker"
          },
          {
            "name": "Ryan Benjamin",
            "role": "inker"
          },
          {
            "name": "Trevor Hairsine",
            "role": "inker"
          },
          {
            "name": "Chris Sotomayor",
            "role": "colorist"
          },
          {
            "name": "Clayton Cowles",
            "role": "letterer"
          }
        ],
        "authorsLock": false,
        "tags": [],
        "tagsLock": false,
        "isbn": "",
        "isbnLock": false,
        "links": [
          {
            "label": "comicvine.gamespot.com",
            "url": "https://comicvine.gamespot.com/batman-fear-state-omega-1/4000-895881/"
          }
        ],
        "linksLock": false,
        "created": "2022-12-01T06:00:06",
        "lastModified": "2022-12-10T14:06:39"
      },
      "readProgress": null,
      "deleted": false,
      "fileHash": "271in8"
    },
    {
      "id": "0APVQJXSY5C7J",
      "seriesId": "0APVQJXP650ZK",
      "seriesTitle": "Batman (2016)",
      "libraryId": "0AE5SF447QPSM",
      "name": "Batman v3 #118.0 - Fear State - Omega 001 (2022)",
      "url": "Batman v3 #118.0 - Fear State - Omega 001 (2022).cbz",
      "number": 167,
      "created": "2022-12-01T06:00:06",
      "lastModified": "2022-12-10T14:00:43",
      "fileLastModified": "2021-12-03T20:44:09",
      "sizeBytes": 70864724,
      "size": "67.6 MiB",
      "media": {
        "status": "READY",
        "mediaType": "application/zip",
        "pagesCount": 39,
        "comment": ""
      },
      "metadata": {
        "title": "Batman v3 #118.0 - Fear State - Omega 001 (2022)",
        "titleLock": false,
        "summary": "As Gotham’s Fear State comes to a close, a new day dawns on the city…one without Batman. But the Dark Knight’s absence does not mean the city is without heroes. Join James Tynion IV and Riccardo Federici as they bring “Fear State” to its conclusion and introduce a new status quo that will reverberate throughout the DCU for years to come.",
        "summaryLock": false,
        "number": "1",
        "numberLock": false,
        "numberSort": 1.0,
        "numberSortLock": false,
        "releaseDate": "2022-01-01",
        "releaseDateLock": false,
        "authors": [
          {
            "name": "James Tynion IV",
            "role": "writer"
          },
          {
            "name": "Christian Duce",
            "role": "penciller"
          },
          {
            "name": "Guillem March",
            "role": "penciller"
          },
          {
            "name": "Riccardo Federici",
            "role": "penciller"
          },
          {
            "name": "Ryan Benjamin",
            "role": "penciller"
          },
          {
            "name": "Trevor Hairsine",
            "role": "penciller"
          },
          {
            "name": "Christian Duce",
            "role": "inker"
          },
          {
            "name": "Guillem March",
            "role": "inker"
          },
          {
            "name": "Riccardo Federici",
            "role": "inker"
          },
          {
            "name": "Ryan Benjamin",
            "role": "inker"
          },
          {
            "name": "Trevor Hairsine",
            "role": "inker"
          },
          {
            "name": "Chris Sotomayor",
            "role": "colorist"
          },
          {
            "name": "Clayton Cowles",
            "role": "letterer"
          }
        ],
        "authorsLock": false,
        "tags": [],
        "tagsLock": false,
        "isbn": "",
        "isbnLock": false,
        "links": [
          {
            "label": "comicvine.gamespot.com",
            "url": "https://comicvine.gamespot.com/batman-fear-state-omega-1/4000-895881/"
          }
        ],
        "linksLock": false,
        "created": "2022-12-01T06:00:06",
        "lastModified": "2022-12-10T14:06:39"
      },
      "readProgress": null,
      "deleted": false,
      "fileHash": "271in8"
    },
    {
      "id": "0APVQJXSY5C7J",
      "seriesId": "0APVQJXP650ZK",
      "seriesTitle": "Batman (2016)",
      "libraryId": "0AE5SF447QPSM",
      "name": "Batman v3 #118.0 - Fear State - Omega 001 (2022)",
      "url": "Batman v3 #118.0 - Fear State - Omega 001 (2022).cbz",
      "number": 167,
      "created": "2022-12-01T06:00:06",
      "lastModified": "2022-12-10T14:00:43",
      "fileLastModified": "2021-12-03T20:44:09",
      "sizeBytes": 70864724,
      "size": "67.6 MiB",
      "media": {
        "status": "READY",
        "mediaType": "application/zip",
        "pagesCount": 39,
        "comment": ""
      },
      "metadata": {
        "title": "Batman v3 #118.0 - Fear State - Omega 001 (2022)",
        "titleLock": false,
        "summary": "As Gotham’s Fear State comes to a close, a new day dawns on the city…one without Batman. But the Dark Knight’s absence does not mean the city is without heroes. Join James Tynion IV and Riccardo Federici as they bring “Fear State” to its conclusion and introduce a new status quo that will reverberate throughout the DCU for years to come.",
        "summaryLock": false,
        "number": "1",
        "numberLock": false,
        "numberSort": 1.0,
        "numberSortLock": false,
        "releaseDate": "2022-01-01",
        "releaseDateLock": false,
        "authors": [
          {
            "name": "James Tynion IV",
            "role": "writer"
          },
          {
            "name": "Christian Duce",
            "role": "penciller"
          },
          {
            "name": "Guillem March",
            "role": "penciller"
          },
          {
            "name": "Riccardo Federici",
            "role": "penciller"
          },
          {
            "name": "Ryan Benjamin",
            "role": "penciller"
          },
          {
            "name": "Trevor Hairsine",
            "role": "penciller"
          },
          {
            "name": "Christian Duce",
            "role": "inker"
          },
          {
            "name": "Guillem March",
            "role": "inker"
          },
          {
            "name": "Riccardo Federici",
            "role": "inker"
          },
          {
            "name": "Ryan Benjamin",
            "role": "inker"
          },
          {
            "name": "Trevor Hairsine",
            "role": "inker"
          },
          {
            "name": "Chris Sotomayor",
            "role": "colorist"
          },
          {
            "name": "Clayton Cowles",
            "role": "letterer"
          }
        ],
        "authorsLock": false,
        "tags": [],
        "tagsLock": false,
        "isbn": "",
        "isbnLock": false,
        "links": [
          {
            "label": "comicvine.gamespot.com",
            "url": "https://comicvine.gamespot.com/batman-fear-state-omega-1/4000-895881/"
          }
        ],
        "linksLock": false,
        "created": "2022-12-01T06:00:06",
        "lastModified": "2022-12-10T14:06:39"
      },
      "readProgress": null,
      "deleted": false,
      "fileHash": "271in8"
    },
    {
      "id": "0APVQJXSY5C7J",
      "seriesId": "0APVQJXP650ZK",
      "seriesTitle": "Batman (2016)",
      "libraryId": "0AE5SF447QPSM",
      "name": "Batman v3 #118.0 - Fear State - Omega 001 (2022)",
      "url": "Batman v3 #118.0 - Fear State - Omega 001 (2022).cbz",
      "number": 167,
      "created": "2022-12-01T06:00:06",
      "lastModified": "2022-12-10T14:00:43",
      "fileLastModified": "2021-12-03T20:44:09",
      "sizeBytes": 70864724,
      "size": "67.6 MiB",
      "media": {
        "status": "READY",
        "mediaType": "application/zip",
        "pagesCount": 39,
        "comment": ""
      },
      "metadata": {
        "title": "Batman v3 #118.0 - Fear State - Omega 001 (2022)",
        "titleLock": false,
        "summary": "As Gotham’s Fear State comes to a close, a new day dawns on the city…one without Batman. But the Dark Knight’s absence does not mean the city is without heroes. Join James Tynion IV and Riccardo Federici as they bring “Fear State” to its conclusion and introduce a new status quo that will reverberate throughout the DCU for years to come.",
        "summaryLock": false,
        "number": "1",
        "numberLock": false,
        "numberSort": 1.0,
        "numberSortLock": false,
        "releaseDate": "2022-01-01",
        "releaseDateLock": false,
        "authors": [
          {
            "name": "James Tynion IV",
            "role": "writer"
          },
          {
            "name": "Christian Duce",
            "role": "penciller"
          },
          {
            "name": "Guillem March",
            "role": "penciller"
          },
          {
            "name": "Riccardo Federici",
            "role": "penciller"
          },
          {
            "name": "Ryan Benjamin",
            "role": "penciller"
          },
          {
            "name": "Trevor Hairsine",
            "role": "penciller"
          },
          {
            "name": "Christian Duce",
            "role": "inker"
          },
          {
            "name": "Guillem March",
            "role": "inker"
          },
          {
            "name": "Riccardo Federici",
            "role": "inker"
          },
          {
            "name": "Ryan Benjamin",
            "role": "inker"
          },
          {
            "name": "Trevor Hairsine",
            "role": "inker"
          },
          {
            "name": "Chris Sotomayor",
            "role": "colorist"
          },
          {
            "name": "Clayton Cowles",
            "role": "letterer"
          }
        ],
        "authorsLock": false,
        "tags": [],
        "tagsLock": false,
        "isbn": "",
        "isbnLock": false,
        "links": [
          {
            "label": "comicvine.gamespot.com",
            "url": "https://comicvine.gamespot.com/batman-fear-state-omega-1/4000-895881/"
          }
        ],
        "linksLock": false,
        "created": "2022-12-01T06:00:06",
        "lastModified": "2022-12-10T14:06:39"
      },
      "readProgress": null,
      "deleted": false,
      "fileHash": "271in8"
    }
  ],
  "pageable": {
    "sort": {
      "empty": false,
      "sorted": false,
      "unsorted": true
    },
    "offset": 0,
    "pageNumber": 0,
    "pageSize": 20,
    "paged": true,
    "unpaged": false
  },
  "totalElements": 4,
  "last": true,
  "totalPages": 1,
  "size": 20,
  "number": 0,
  "sort": {
    "empty": false,
    "sorted": false,
    "unsorted": true
  },
  "first": true,
  "numberOfElements": 4,
  "empty": false
}